Introdução Rápida ao R
…
top_n(): Seleciona por linhas de acordo com o rank das variáveis.

Select

# Dplyr

d <- d %>% select(CODIGO_CARGO, NOME_COLIGACAO, SIGLA_PARTIDO, NOME_MUNICIPIO, 
    QTDE_VOTOS_NOMINAIS, QTDE_VOTOS_LEGENDA)

# Se voce nao quiser usar o pipe

select(d, CODIGO_CARGO, NOME_COLIGACAO, SIGLA_PARTIDO, NOME_MUNICIPIO, QTDE_VOTOS_NOMINAIS, 
    QTDE_VOTOS_LEGENDA)

# A tibble: 11,961 x 6
   CODIGO_CARGO NOME_COLIGACAO SIGLA_PARTIDO NOME_MUNICIPIO
          <dbl> <chr>          <chr>         <chr>         
 1            7 AQUI O PARÁ T~ PTC           AFUÁ          
 2            7 PDT, PPL, PTN~ PPL           AURORA DO PARÁ
 3            3 JUNTOS COM O ~ PSDB          BONITO        
 4            3 JUNTOS COM O ~ PSDB          SANTA CRUZ DO~
 5            3 JUNTOS COM O ~ PSDB          NOVA IPIXUNA  
 6            5 PARTIDO ISOLA~ PSTU          SÃO DOMINGOS ~
 7            6 A FORÇA DA NO~ PRB           BREJO GRANDE ~
 8            6 UNIÃO PELO PA~ PP            PIÇARRA       
 9            6 UNIÃO PELO PA~ PTB           CURRALINHO    
10            6 FRENTE DE ESQ~ PSTU          ITAITUBA      
# ... with 11,951 more rows, and 2 more variables:
#   QTDE_VOTOS_NOMINAIS <dbl>, QTDE_VOTOS_LEGENDA <dbl>

# Retirar Coluna
d %>% select(-CODIGO_CARGO)

# A tibble: 11,961 x 5
   NOME_COLIGACAO SIGLA_PARTIDO NOME_MUNICIPIO QTDE_VOTOS_NOMI~
   <chr>          <chr>         <chr>                     <dbl>
 1 AQUI O PARÁ T~ PTC           AFUÁ                         91
 2 PDT, PPL, PTN~ PPL           AURORA DO PARÁ              179
 3 JUNTOS COM O ~ PSDB          BONITO                     4612
 4 JUNTOS COM O ~ PSDB          SANTA CRUZ DO~             1113
 5 JUNTOS COM O ~ PSDB          NOVA IPIXUNA               3092
 6 PARTIDO ISOLA~ PSTU          SÃO DOMINGOS ~                3
 7 A FORÇA DA NO~ PRB           BREJO GRANDE ~               25
 8 UNIÃO PELO PA~ PP            PIÇARRA                       4
 9 UNIÃO PELO PA~ PTB           CURRALINHO                  736
10 FRENTE DE ESQ~ PSTU          ITAITUBA                      9
# ... with 11,951 more rows, and 1 more variable: QTDE_VOTOS_LEGENDA <dbl>

Filter.

# Somente o PT

d %>% filter(SIGLA_PARTIDO == "PT")

# A tibble: 474 x 6
   CODIGO_CARGO NOME_COLIGACAO SIGLA_PARTIDO NOME_MUNICIPIO
          <dbl> <chr>          <chr>         <chr>         
 1            5 TODOS PELO PA~ PT            TRAIRÃO       
 2            6 TODOS PELO PA~ PT            CONCEIÇÃO DO ~
 3            7 TODOS PELO PA~ PT            NOVA ESPERANÇ~
 4            5 TODOS PELO PA~ PT            OURILÂNDIA DO~
 5            7 TODOS PELO PA~ PT            OURÉM         
 6            5 TODOS PELO PA~ PT            BAGRE         
 7            5 TODOS PELO PA~ PT            SALINÓPOLIS   
 8            6 TODOS PELO PA~ PT            BARCARENA     
 9            6 TODOS PELO PA~ PT            BELÉM         
10            7 TODOS PELO PA~ PT            INHANGAPI     
# ... with 464 more rows, and 2 more variables: QTDE_VOTOS_NOMINAIS <dbl>,
#   QTDE_VOTOS_LEGENDA <dbl>

# Duas condicoes

d %>% filter(SIGLA_PARTIDO == "PT", NOME_MUNICIPIO == "BELÉM")

# A tibble: 33 x 6
   CODIGO_CARGO NOME_COLIGACAO SIGLA_PARTIDO NOME_MUNICIPIO
          <dbl> <chr>          <chr>         <chr>         
 1            6 TODOS PELO PA~ PT            BELÉM         
 2            6 TODOS PELO PA~ PT            BELÉM         
 3            7 TODOS PELO PA~ PT            BELÉM         
 4            7 TODOS PELO PA~ PT            BELÉM         
 5            6 TODOS PELO PA~ PT            BELÉM         
 6            6 TODOS PELO PA~ PT            BELÉM         
 7            5 TODOS PELO PA~ PT            BELÉM         
 8            7 TODOS PELO PA~ PT            BELÉM         
 9            7 TODOS PELO PA~ PT            BELÉM         
10            6 TODOS PELO PA~ PT            BELÉM         
# ... with 23 more rows, and 2 more variables: QTDE_VOTOS_NOMINAIS <dbl>,
#   QTDE_VOTOS_LEGENDA <dbl>

Mutate: Criar novas variáveis

# Razão entre a quantidade de votos de legenda e nominais para deputado
# federal

# Primeiro, limite a deputados federais.

d <- d %>% filter(CODIGO_CARGO == 6)

d %>% mutate(razaovotos = QTDE_VOTOS_LEGENDA/(QTDE_VOTOS_NOMINAIS + QTDE_VOTOS_LEGENDA)) %>% 
    select(razaovotos, SIGLA_PARTIDO, NOME_MUNICIPIO)

# A tibble: 4,740 x 3
   razaovotos SIGLA_PARTIDO NOME_MUNICIPIO          
        <dbl> <chr>         <chr>                   
 1     0.138  PRB           BREJO GRANDE DO ARAGUAIA
 2     0.879  PP            PIÇARRA                 
 3     0.0354 PTB           CURRALINHO              
 4     0.471  PSTU          ITAITUBA                
 5     0.0170 DEM           TUCUMÃ                  
 6     1      PRP           BAIÃO                   
 7     0.463  PRP           NOVO REPARTIMENTO       
 8     0.109  PRB           ALMEIRIM                
 9     0.0222 PRB           BELTERRA                
10     0.119  PDT           BELÉM                   
# ... with 4,730 more rows

Arrange: para ordernar

# What was the largest difference in gols?

d %>% mutate(razaovotos = QTDE_VOTOS_LEGENDA/(QTDE_VOTOS_NOMINAIS + QTDE_VOTOS_LEGENDA)) %>% 
    select(razaovotos, SIGLA_PARTIDO, NOME_MUNICIPIO) %>% arrange(desc(razaovotos))

# A tibble: 4,740 x 3
   razaovotos SIGLA_PARTIDO NOME_MUNICIPIO         
        <dbl> <chr>         <chr>                  
 1          1 PRP           BAIÃO                  
 2          1 PMN           SANTA LUZIA DO PARÁ    
 3          1 PTN           TUCUMÃ                 
 4          1 PTC           XINGUARA               
 5          1 PPL           DOM ELISEU             
 6          1 PRP           OURÉM                  
 7          1 PTN           PRIMAVERA              
 8          1 PT do B       PIÇARRA                
 9          1 PTN           SÃO CAETANO DE ODIVELAS
10          1 PRP           MARACANÃ               
# ... with 4,730 more rows

# Elimine 1. Sao partidos que receberam somente votos de legenda

d %>% mutate(razaovotos = QTDE_VOTOS_LEGENDA/(QTDE_VOTOS_NOMINAIS + QTDE_VOTOS_LEGENDA)) %>% 
    select(razaovotos, SIGLA_PARTIDO, NOME_MUNICIPIO) %>% arrange(desc(razaovotos)) %>% 
    filter(razaovotos != 1)

# A tibble: 3,901 x 3
   razaovotos SIGLA_PARTIDO NOME_MUNICIPIO         
        <dbl> <chr>         <chr>                  
 1      0.978 PRP           FLORESTA DO ARAGUAIA   
 2      0.974 PPL           NOVA ESPERANÇA DO PIRIÁ
 3      0.974 PHS           PARAGOMINAS            
 4      0.974 PRP           CAPITÃO POÇO           
 5      0.972 PRP           TUCUMÃ                 
 6      0.971 PRP           TUCURUÍ                
 7      0.967 PHS           MARABÁ                 
 8      0.964 PHS           DOM ELISEU             
 9      0.963 PRP           VISEU                  
10      0.961 PHS           SANTARÉM               
# ... with 3,891 more rows
…
quantile(x, p) - quantile de x.

sd(x) - desvio padrão de x.

var(x) - variancia de x.

# Média e total dos votos por Partido no Estado

d %>% 
group_by(SIGLA_PARTIDO) %>% 
summarise(media_votos = mean(QTDE_VOTOS_NOMINAIS, na.rm = TRUE), total_votos = sum(QTDE_VOTOS_NOMINAIS, 
    na.rm = TRUE)) %>% ungroup()

# A tibble: 30 x 3
   SIGLA_PARTIDO media_votos total_votos
   <chr>               <dbl>       <dbl>
 1 DEM                1462.       230925
 2 PC do B             117.        18474
 3 PCB                 NaN             0
 4 PDT                 751.       118667
 5 PEN                  41.6        6575
 6 PHS                  19.1        3012
 7 PMDB               2766.       437085
 8 PMN                  46.1        7280
 9 PP                  398.        62849
10 PPL                  20.7        3270
# ... with 20 more rows
…
Count: Contar casos agrupoados

# Número de Zonais que os partidos receberam votos

d %>% 
# exclue zero

filter(QTDE_VOTOS_NOMINAIS > 0) %>% 
# Contando

count(SIGLA_PARTIDO)

# A tibble: 28 x 2
   SIGLA_PARTIDO     n
   <chr>         <int>
 1 DEM             158
 2 PC do B         143
 3 PDT             158
 4 PEN             132
 5 PHS              84
 6 PMDB            158
 7 PMN             124
 8 PP              157
 9 PPL             100
10 PPS             154
# ... with 18 more rows
…
