Acessando APIs: Estudo de Caso do Twitter
…
[1] "DepAlexSantiago"

Quais tweets o deputado curtiu recentemente?

dep1_favorites <- get_favorites(names[1], n = 5)
dep1_favorites$text

NULL

Quem o deputado segue?

dep1_seguidores <- get_followers(names[1])
dep1_seguidores

# A tibble: 77 x 1
   user_id            
   <chr>              
 1 1192018480427606016
 2 1178495030702592001
 3 26397382           
 4 2379079912         
 5 837784260593520641 
 6 1175957802436714496
 7 2295381927         
 8 1093086549825208321
 9 3344298503         
10 1163997233886482435
# ... with 67 more rows
…
Para demonstrar possíveis análises com dados de Twitter, vamos praticas com algumas técnicas simples e descritivas de análise computacional de texto usando o pacote de R quanteda. Coletaremos as timelines dos deputados do Pará, utilizando o arquivo de .csv que criamos ontem depois de fazer a raspagem no site da ALEPA.

Coletar Tweets

text <- map(names, ~get_timelines(.x, n = 3000))

Vamos agora separar somente com o texto e nome de cada deputado.

# Combinar todos

tweets <- bind_rows(text) %>% select(screen_name, text)

tweets

# A tibble: 18,661 x 2
   screen_name     text                                                    
   <chr>           <chr>                                                   
 1 DepAlexSantiago A convite da comunidade evangélica dirigida pelo pastor~
 2 DepAlexSantiago Estive em Belém na sede da UEPA - Universidade Estadual~
 3 bordalopt       "A bancada do PT na @Alepa_com apresentou emenda à PEC ~
 4 bordalopt       Gratidão por um ano incrível. #2019PodcasterWrapped htt~
 5 bordalopt       A proposta fará que o consumidor tenha mais um instrume~
 6 bordalopt       "Em celebração ao dia Internacional dos Direitos Humano~
 7 bordalopt       Inclusão é um direito humano fundamental. https://t.co/~
 8 bordalopt       "A entrega da medalha Paulo Frota de Direitos Humanos t~
 9 bordalopt       "A Comissão de Direitos Humanos da Alepa homenageia, ho~
10 bordalopt       Um dos homenageados é o grupo Mundo Azul, de mães e pai~
# ... with 18,651 more rows
…
